<svg xmlns="http://www.w3.org/2000/svg" width="18.472" height="16.013" viewBox="0 0 18.472 16.013">
  <g id="Symbol_76_1" data-name="Symbol 76 – 1" transform="translate(-1127 49.269)">
    <path id="Path_6153" data-name="Path 6153" d="M8.3,30.76H4.864V21.119H3.582V17.763H8.3Z" transform="translate(1123.417 -67.031)" fill="#f04086"/>
    <g id="Group_2229" data-name="Group 2229" transform="translate(1133.082 -49.09)">
      <path id="Path_6154" data-name="Path 6154" d="M23.127,22.389V20.83h9.9L24.458,34.79l-1.332-.816,7.108-11.585Z" transform="translate(-22.042 -20.041)" fill="#f04086" fill-rule="evenodd"/>
      <path id="Path_6155" data-name="Path 6155" d="M22.365,34.163l-2.677-1.64,6.784-11.056H19.984V18.33H32.078Z" transform="translate(-19.688 -18.33)" fill="#f04086"/>
    </g>
  </g>
</svg>
