<?xml version="1.0" encoding="UTF-8"?>
<svg width="22px" height="22px" viewBox="0 0 22 22" version="1.1" xmlns="http://www.w3.org/2000/svg" xmlns:xlink="http://www.w3.org/1999/xlink">
    <!-- Generator: Sketch 53.2 (72643) - https://sketchapp.com -->
    <title>ico/user_login@2x</title>
    <desc>Created with Sketch.</desc>
    <g id="ico/user_login" stroke="none" stroke-width="1" fill="none" fill-rule="evenodd" opacity="0.501325335">
        <g id="user-(1)" fill="#4A4A4A" fill-rule="nonzero">
            <path d="M11.001489,2.93333333 C8.97613349,2.93333333 7.334326,4.57491861 7.334326,6.6 C7.334326,8.62508139 8.97613349,10.2666667 11.001489,10.2666667 C13.0268445,10.2666667 14.668652,8.62508139 14.668652,6.6 C14.6665033,4.57581383 13.0259492,2.93548177 11.001489,2.93333333 Z M11.001489,9.53333333 C9.3811688,9.53333333 8.06775861,8.2201009 8.06775861,6.6 C8.06775861,4.9798991 9.3811688,3.66666667 11.001489,3.66666667 C12.6218092,3.66666667 13.9352194,4.9798991 13.9352194,6.6 C13.9334288,8.21920573 12.6209139,9.53154299 11.001489,9.53333333 Z M11.001489,1.30266168e-15 C16.6841592,0.00179036458 21.4303419,4.33071288 21.952841,9.98862306 C22.4753401,15.6465332 18.6020783,20.7710937 13.0159218,21.813444 L12.9004277,21.8338542 C12.5999638,21.8863118 12.2971722,21.9282064 11.9916946,21.955599 C11.6631183,21.98514 11.3329304,22 11.001489,22 C4.92560156,22 0,17.0750651 0,11 C0,4.9249349 4.92560156,1.30266168e-15 11.001489,1.30266168e-15 Z M10.1176454,21.2278158 C10.4104097,21.2530599 10.7062179,21.2641601 11.0032796,21.2641601 C11.3003413,21.2641601 11.5938218,21.2505534 11.8871232,21.2253092 L11.913087,21.2253092 C12.1985097,21.1998861 12.4819628,21.1617513 12.762909,21.1126953 C12.7786664,21.1101888 12.7944237,21.1082194 12.8101811,21.1053548 C13.0848602,21.0561198 13.3564952,20.9948893 13.6256235,20.9238118 L13.6888319,20.9080566 C13.9524092,20.8366211 14.2127635,20.7533691 14.4695365,20.6613444 C14.4926353,20.6525716 14.5178829,20.644515 14.5429514,20.6352051 C14.7952479,20.5424642 15.043426,20.4388021 15.2876648,20.3261882 C15.3155983,20.3143717 15.3433527,20.3023763 15.370928,20.2894857 C15.6114065,20.1772298 15.8472295,20.0526205 16.0791131,19.9206705 C16.1075837,19.9041992 16.1369497,19.888444 16.1655994,19.8717936 C16.394439,19.7378743 16.6179067,19.5953613 16.8360026,19.4438965 C16.8644733,19.4242025 16.8934811,19.4050455 16.9221308,19.3849935 C17.1382571,19.2320964 17.3486534,19.0702474 17.5536779,18.8990885 L17.6023824,18.8584473 L17.6023824,15.7666667 C17.5996965,13.5401693 15.7953019,11.7360189 13.5685031,11.7333333 L8.43447491,11.7333333 C6.20767612,11.7360189 4.40328152,13.5401693 4.4005956,15.7666667 L4.4005956,18.8580892 L4.45592535,18.906429 C4.65701052,19.073291 4.86346748,19.2328125 5.0752963,19.3830241 C5.10770627,19.4057617 5.14065344,19.4277832 5.17324251,19.4505208 C5.38883158,19.5991211 5.60853902,19.7398437 5.83343925,19.8710775 C5.86567022,19.8891601 5.89825924,19.9074219 5.93049017,19.9256836 C6.15897161,20.0560222 6.39192956,20.1799153 6.62954312,20.2898437 C6.65962531,20.3041667 6.68970751,20.3170573 6.7197897,20.330485 C6.96205881,20.4420247 7.20808823,20.5451497 7.45859415,20.6371745 C7.48509509,20.6470215 7.51177516,20.6554362 7.53827615,20.6649251 C7.79379577,20.7565918 8.05307565,20.8391276 8.31522051,20.9102051 L8.3802195,20.9268555 C8.64898964,20.997933 8.9204456,21.0588053 9.19476663,21.1078613 C9.21052397,21.1109049 9.22663941,21.1126953 9.24275485,21.1155599 C9.52334297,21.1644368 9.80643796,21.2025716 10.0916816,21.2278158 L10.1176454,21.2278158 Z M18.335815,18.1786458 L18.335815,18.1782878 C22.2855358,14.14764 22.2414869,7.68531903 18.2373316,3.70874025 C14.2331764,-0.267659517 7.76980161,-0.267659517 3.76564641,3.70874025 C-0.238508844,7.68531903 -0.282557751,14.14764 3.667163,18.1782878 L3.667163,15.7666667 C3.67020702,13.1353678 5.8028199,11.0030436 8.43447491,11 L13.5685031,11 C16.2001581,11.0030436 18.332771,13.1353678 18.335815,15.7666667 L18.335815,18.1786458 Z" id="Shape"></path>
        </g>
    </g>
</svg>