<?xml version="1.0" encoding="UTF-8"?>
<svg width="50px" height="50px" viewBox="0 0 50 50" version="1.1" xmlns="http://www.w3.org/2000/svg" xmlns:xlink="http://www.w3.org/1999/xlink">
    <!-- Generator: Sketch 54.1 (76490) - https://sketchapp.com -->
    <title>ico/fb@2x</title>
    <desc>Created with Sketch.</desc>
    <g id="ico/fb" stroke="none" stroke-width="1" fill="none" fill-rule="evenodd">
        <g id="Group-14-Copy-3" fill-rule="nonzero">
            <g id="Group-3">
                <circle id="Oval" fill="#3C5A99" cx="25" cy="25" r="25"></circle>
                <g id="flogo-HexRBG-Wht-58" transform="translate(13.000000, 13.000000)" fill="#FFFFFF">
                    <path d="M22.6736842,0 L1.32631579,0 C0.593811805,-4.4852933e-17 8.97058659e-17,0.593811805 0,1.32631579 L0,22.6736842 C8.97058659e-17,23.4061882 0.593811805,24 1.32631579,24 L12.8210526,24 L12.8210526,14.7368421 L9.68421053,14.7368421 L9.68421053,11.0863158 L12.8042105,11.0863158 L12.8042105,8.42105263 C12.8042105,5.31789474 14.6947368,3.62947368 17.4610526,3.62947368 C18.4007893,3.63226577 19.3396934,3.68567648 20.2736842,3.78947368 L20.2736842,7.02736842 L18.3621053,7.02736842 C16.8589474,7.02736842 16.5684211,7.73894737 16.5684211,8.78736842 L16.5684211,11.1031579 L20.1684211,11.1031579 L19.7010526,14.7368421 L16.5684211,14.7368421 L16.5684211,24 L22.6736842,24 C23.4061882,24 24,23.4061882 24,22.6736842 L24,1.32631579 C24,0.593811805 23.4061882,4.4852933e-17 22.6736842,0 Z" id="Path"></path>
                </g>
            </g>
        </g>
    </g>
</svg>