<svg xmlns="http://www.w3.org/2000/svg" width="9.932" height="5.899" viewBox="0 0 9.932 5.899">
  <path id="Path_6160" data-name="Path 6160" d="M3968.7,939.506l3.966-3.9,2.975,2.924.991.975" transform="translate(-3967.701 -934.607)" fill="none" stroke="#f04086" stroke-linecap="round" stroke-linejoin="round" stroke-width="2"/>
</svg>
