中山區,一江街
中山區,大佳街
中山區,大直街
中山區,八德路二段
中山區,中原街
中山區,中山北路一段
中山區,中山北路二段
中山區,中山北路三段
中山區,中山北路四段
中山區,巿民大道二段
中山區,巿民大道三段
中山區,北安路
中山區,玉門街
中山區,天祥路
中山區,天津街
中山區,民族東路 單號(1~19)雙號(2~108) 
中山區,民族東路 單號(21~43)雙號(110~242) 
中山區,民族東路 單號(45~175)雙號(244~566) 
中山區,民族西路
中山區,民權東路一段
中山區,民權東路二段
中山區,民權東路三段
中山區,民權西路
中山區,民生東路一段
中山區,民生東路二段
中山區,民生東路三段
中山區,民生西路
中山區,五常街
中山區,合江街
中山區,四平街
中山區,朱崙街
中山區,安東街
中山區,林森北路 單號(49~157)雙號(40~156) 
中山區,林森北路 單號(247~489)雙號(258~522) 
中山區,林森北路 單號(491~673)雙號(524~646) 
中山區,吉林路
中山區,伊通街
中山區,明水路
中山區,松江路 單號(1~115)雙號(2~120) 
中山區,松江路 單號(117~319)雙號(122~366) 
中山區,松江路 單號(321~581)雙號(368~544) 
中山區,長春路 單號(1~73)雙號(2~90) 
中山區,長春路 單號(75~167)雙號(92~206) 
中山區,長春路 單號(169~329)雙號(208~410) 
中山區,長安西路
中山區,長安東路一段
中山區,長安東路二段
中山區,南京西路
中山區,南京東路一段
中山區,南京東路二段
中山區,南京東路三段
中山區,建國北路一段
中山區,建國北路二段
中山區,建國北路三段
中山區,建國南路一段
中山區,華陰街
中山區,酒泉街
中山區,通北街
中山區,基湖路
中山區,復興北路 雙號(2~100) 
中山區,復興北路 雙號(102~250) 
中山區,復興北路 雙號(252~410) 
中山區,復興北路 雙號(412~530) 
中山區,復興南路一段
中山區,植福路
中山區,渭水路
中山區,敬業一路
中山區,敬業二路
中山區,敬業三路
中山區,敬業四路
中山區,堤頂大道二段
中山區,新生北路一段
中山區,新生北路二段
中山區,新生北路三段
中山區,樂群一路
中山區,樂群二路
中山區,樂群三路
中山區,樂群四路
中山區,撫順街
中山區,農安街
中山區,劍南路
中山區,德惠街
中山區,雙城街
中山區,錦西街
中山區,錦州街
中山區,濱江街
中山區,龍江路 單號(1~133)雙號(2~94)
中山區,龍江路 單號(135~325)雙號(96~302)
中山區,龍江路 單號(327~461)雙號(304~416)
中山區,遼寧街
中山區,興安街
松山區,八德路二段
松山區,八德路三段
松山區,八德路四段
松山區,三民路
松山區,五常街
松山區,北寧路
松山區,巿民大道四段
松山區,巿民大道五段
松山區,吉祥路
松山區,安東街
松山區,光復北路 單號(1~111)雙號(2~120)
松山區,光復北路 單號(113~179)雙號(122~248)
松山區,光復北路 單號(181~199)雙號(250~300)
松山區,光復南路
松山區,民族東路
松山區,民權東路三段
松山區,民權東路四段
松山區,民權東路五段
松山區,民生東路三段
松山區,民生東路四段
松山區,民生東路五段
松山區,東寧路
松山區,東興路
松山區,延壽街
松山區,延吉街
松山區,南京東路三段
松山區,南京東路四段
松山區,南京東路五段
松山區,長安東路二段
松山區,長春路
松山區,松山路
松山區,松河街
松山區,虎林街
松山區,健康路 單號(1~129)雙號(2~130) 
松山區,健康路 單號(131~415)雙號(132~650) 
松山區,復興北路 單號(1~95) 
松山區,復興北路 單號(97~299) 
松山區,復興北路 單號(301~367) 
松山區,復興北路 單號(369~527) 
松山區,復興南路一段
松山區,基隆路一段
松山區,敦化北路 單號(1~99)雙號(2~98) 
松山區,敦化北路 單號(101~205)雙號(100~200) 
松山區,敦化北路 單號(207~499)雙號(202~500) 
松山區,敦化南路一段
松山區,塔悠路 單號(1~237)雙號(2~280)
松山區,塔悠路 單號(239~351)雙號(282~350) 
松山區,新中街
松山區,新東街
松山區,富錦街
松山區,慶城街
松山區,寧安街
松山區,撫遠街
松山區,興安街
松山區,濱江街
松山區,寶清街
松山區,饒河街
大安區,八德路二段
大安區,大安路一段
大安區,大安路二段
大安區,文昌街
大安區,仁愛路三段
大安區,仁愛路四段
大安區,台灣大學路
大安區,四維路
大安區,巿民大道三段
大安區,巿民大道四段
大安區,光復南路 雙號(2~378) 
大安區,光復南路 雙號(380~710) 
大安區,永康街
大安區,安和路一段
大安區,安和路二段
大安區,安居街
大安區,安東街
大安區,和平東路一段
大安區,和平東路二段
大安區,和平東路三段
大安區,辛亥路一段
大安區,辛亥路二段
大安區,辛亥路三段
大安區,芳蘭路
大安區,忠孝東路三段
大安區,忠孝東路四段
大安區,杭州南路二段
大安區,信義路二段
大安區,信義路三段
大安區,信義路四段
大安區,金山南路二段
大安區,金華街
大安區,青田街
大安區,師大路
大安區,泰順街
大安區,浦城街
大安區,建國南路一段
大安區,建國南路二段
大安區,延吉街 單號(1~199)雙號(2~198) 
大安區,延吉街 單號(201~299)雙號(200~300) 
大安區,東豐街
大安區,臥龍街
大安區,長興街
大安區,基隆路二段
大安區,基隆路三段
大安區,基隆路四段
大安區,通安街
大安區,通化街
大安區,富陽街
大安區,雲和街
大安區,新生南路一段
大安區,新生南路二段
大安區,新生南路三段
大安區,新生北路一段
大安區,復興南路一段
大安區,復興南路二段
大安區,潮州街
大安區,溫州街
大安區,瑞安街
大安區,敦化南路一段
大安區,敦化南路二段
大安區,敦南街
大安區,愛國東路
大安區,樂利路
大安區,樂業街
大安區,嘉興街
大安區,麗水街
大安區,龍泉街
大安區,羅斯福路二段
大安區,羅斯福路三段
大安區,羅斯福路四段
大安區,濟南路三段
大安區,臨江街
信義區,大道路
信義區,文昌街
信義區,中坡南路
信義區,中坡北路
信義區,仁愛路四段
信義區,巿民大道五段
信義區,巿府路
信義區,永吉路 單號(1~429)雙號(2~398)
信義區,永吉路 單號(431~605)雙號(400~600)
信義區,光復南路 單號(1~399)
信義區,光復南路 單號(401~599)
信義區,和平東路三段
信義區,東興路
信義區,松隆路
信義區,松高路
信義區,松智路
信義區,松仁路
信義區,松壽路
信義區,松勇路
信義區,松信路
信義區,松勤街
信義區,松平路
信義區,松德路
信義區,松廉路
信義區,松山路
信義區,林口街
信義區,虎林街 單號(1~119)雙號(2~128)
信義區,虎林街 單號(121~265)雙號(130~260)
信義區,吳興街 單號(1~225)雙號(2~220)
信義區,吳興街 單號(227~599)雙號(222~600)
信義區,忠孝東路四段
信義區,忠孝東路五段
信義區,臥龍街
信義區,信安街
信義區,信義路四段
信義區,信義路五段
信義區,信義路六段
信義區,嘉興街
信義區,富陽街
信義區,基隆路一段
信義區,基隆路二段
信義區,逸仙路
信義區,莊敬路
信義區,崇德街
信義區,福德街
信義區,青雲街
信義區,祥雲街
信義區,景雲街
信義區,紫雲街
信義區,瑞雲街
南港區,八德路四段
南港區,中坡南路
南港區,中坡北路
南港區,中南街
南港區,玉成街
南港區,松河街
南港區,向陽路
南港區,同德路
南港區,成福路
南港區,成功路一段
南港區,永吉路
南港區,合順街
南港區,忠孝東路五段
南港區,忠孝東路六段
南港區,忠孝東路七段
南港區,重陽路
南港區,昆陽街
南港區,東新街
南港區,東南街
南港區,東明街
南港區,南深路
南港區,南港路一段
南港區,南港路二段
南港區,南港路三段
南港區,研究院路一段
南港區,研究院路二段
南港區,研究院路三段
南港區,研究院路四段
南港區,新民街
南港區,惠民街
南港區,富康街
南港區,港東街
南港區,園區街
南港區,福山街
南港區,福德街
南港區,興南街
南港區,興華街
南港區,興中路
南港區,興東街
南港區,舊莊街一段
南港區,舊莊街二段
南港區,經貿一路
南港區,經貿二路
內湖區,大湖街
內湖區,大湖山莊街
內湖區,文湖街
內湖區,內湖路一段
內湖區,內湖路二段
內湖區,內湖路三段
內湖區,文德路
內湖區,五分街
內湖區,民善街
內湖區,民權東路六段 單號(1~101)雙號(2~156)
內湖區,民權東路六段 單號(103~499)雙號(158~400)
內湖區,永保街
內湖區,行忠路
內湖區,行愛路
內湖區,行善路
內湖區,安美街
內湖區,安康路
內湖區,安興街
內湖區,安泰街
內湖區,江南街
內湖區,金龍路
內湖區,金湖路
內湖區,康樂街
內湖區,康寧路一段
內湖區,康寧路二段
內湖區,康寧路三段
內湖區,星雲街
內湖區,成功路二段
內湖區,成功路三段
內湖區,成功路四段
內湖區,成功路五段
內湖區,東湖路
內湖區,忠二街
內湖區,忠三街
內湖區,洲子街
內湖區,港華街
內湖區,港墘路
內湖區,基湖路
內湖區,瑞光路
內湖區,瑞湖街
內湖區,陽光街
內湖區,堤頂大道一段
內湖區,堤頂大道二段
內湖區,新明路
內湖區,新湖一路
內湖區,新湖二路
內湖區,新湖三路
內湖區,潭美街
內湖區,環山路一段
內湖區,環山路二段
內湖區,環山路三段
內湖區,舊宗路一段
內湖區,舊宗路二段
內湖區,麗山街
內湖區,碧山路
中正區,八德路一段
中正區,三元街
中正區,中華路一段
中正區,中華路二段
中正區,中山南路
中正區,中山北路一段
中正區,巿民大道一段
中正區,巿民大道二段
中正區,永綏街
中正區,永春街
中正區,大埔街
中正區,天津街
中正區,公園路
中正區,汀州路一段
中正區,汀州路二段
中正區,汀州路三段
中正區,丹陽街
中正區,水源路
中正區,仁愛路一段
中正區,仁愛路二段
中正區,北平西路
中正區,北平東路
中正區,西藏路
中正區,酉陽街
中正區,辛亥路一段
中正區,和平西路一段
中正區,和平西路二段
中正區,金門街
中正區,金華街
中正區,金山南路一段
中正區,金山北路
中正區,同安街
中正區,沅陵街
中正區,秀山街
中正區,信陽街
中正區,信義路一段
中正區,信義路二段
中正區,青島東路
中正區,青島西路
中正區,忠孝西路一段
中正區,忠孝東路一段
中正區,忠孝東路二段
中正區,武昌街一段
中正區,長沙街一段
中正區,林森南路 單號(1~79)雙號(2~80)
中正區,林森南路 單號(81~109)雙號(82~110)
中正區,林森北路
中正區,徐州路
中正區,南陽街
中正區,南海路
中正區,南昌路一段
中正區,南昌路二段
中正區,重慶南路一段
中正區,重慶南路二段
中正區,重慶南路三段
中正區,杭州南路一段
中正區,杭州南路二段
中正區,杭州北路
中正區,延平南路
中正區,思源街
中正區,泉州街
中正區,牯嶺街
中正區,泰安街
中正區,晉江街
中正區,莒光路
中正區,師大路
中正區,桃源街
中正區,許昌街
中正區,連雲街
中正區,常德街
中正區,貴陽街一段
中正區,基隆路四段
中正區,紹興南街
中正區,紹興北街
中正區,惠安街
中正區,詔安街
中正區,湖口街
中正區,福州街
中正區,博愛路
中正區,凱達格蘭大道
中正區,開封街一段
中正區,漢口街一段
中正區,新生南路一段
中正區,新生北路一段
中正區,愛國東路
中正區,愛國西路
中正區,寧波東街
中正區,寧波西街
中正區,齊東街
中正區,廈門街
中正區,廣州街
中正區,銅山街
中正區,潮州街
中正區,館前路
中正區,衡陽路
中正區,襄陽路
中正區,寶慶路
中正區,懷寧街
中正區,鎮江街
中正區,臨沂街
中正區,濟南路一段
中正區,濟南路二段
中正區,羅斯福路一段
中正區,羅斯福路二段
中正區,羅斯福路三段
中正區,羅斯福路四段
大同區,承德路一段
大同區,承德路二段
大同區,承德路三段
大同區,雙連街
大同區,萬全街
大同區,赤峰街
內湖區,日太路
萬華區,峨嵋街
信義區,興雅路
南港區,三重路
大同區,延平北路一段
大同區,延平北路二段
文山區,指南路一段
文山區,指南路二段
大同區,民權西路
