<?xml version="1.0" encoding="utf-8"?>
<!-- Generator: Adobe Illustrator 15.0.0, SVG Export Plug-In . SVG Version: 6.00 Build 0)  -->
<!DOCTYPE svg PUBLIC "-//W3C//DTD SVG 1.1//EN" "http://www.w3.org/Graphics/SVG/1.1/DTD/svg11.dtd">
<svg version="1.1" id="圖層_1" xmlns="http://www.w3.org/2000/svg" xmlns:xlink="http://www.w3.org/1999/xlink" x="0px" y="0px"
	 width="80px" height="22px" viewBox="0 0 80 22" enable-background="new 0 0 80 22" xml:space="preserve">
<g id="圖層_2">
	<rect fill="#02478C" width="80" height="17"/>
	<polygon fill="#02478C" points="20,17 20,21.432 24.523,17 	"/>
</g>
<g id="圖層_5">
	<text transform="matrix(1 0 0 1 11.5239 11.75)" fill="#FFFFFF" font-family="'DFHei-Bd-HK-BF'" font-size="12">父親節精選</text>
</g>
</svg>
