<?xml version="1.0" encoding="utf-8"?>
<!-- Generator: Adobe Illustrator 15.0.0, SVG Export Plug-In . SVG Version: 6.00 Build 0)  -->
<!DOCTYPE svg PUBLIC "-//W3C//DTD SVG 1.1//EN" "http://www.w3.org/Graphics/SVG/1.1/DTD/svg11.dtd">
<svg version="1.1" id="圖層_1" xmlns="http://www.w3.org/2000/svg" xmlns:xlink="http://www.w3.org/1999/xlink" x="0px" y="0px"
	 width="150px" height="80px" viewBox="0 0 150 80" enable-background="new 0 0 150 80" xml:space="preserve">
<g>
	<g>
		<defs>
			<polygon id="SVGID_1_" points="19.848,30.763 19.848,25.838 51.091,25.838 24.052,69.915 19.848,67.338 42.29,30.763 
				19.848,30.763 			"/>
		</defs>
		<use xlink:href="#SVGID_1_"  overflow="visible" fill-rule="evenodd" clip-rule="evenodd" fill="#CCCCCC"/>
		<clipPath id="SVGID_2_">
			<use xlink:href="#SVGID_1_"  overflow="visible"/>
		</clipPath>
	</g>
	<g>
		<defs>
			<polygon id="SVGID_3_" points="3.213,25.838 3.213,30.763 7.259,30.763 7.259,61.203 12.437,61.203 12.437,25.838 3.213,25.838 
							"/>
		</defs>
		<use xlink:href="#SVGID_3_"  overflow="visible" fill="#CCCCCC"/>
		<clipPath id="SVGID_4_">
			<use xlink:href="#SVGID_3_"  overflow="visible"/>
		</clipPath>
	</g>
	<g>
		<path fill-rule="evenodd" clip-rule="evenodd" fill="#CCCCCC" d="M126.768,38.338c-2.388,0-3.967,1.241-4.721,2.91
			c-0.435,1.028-0.596,1.781-0.65,3.022h10.731c-0.055-1.241-0.214-1.994-0.651-3.022C130.719,39.58,129.148,38.338,126.768,38.338z
			"/>
		<path fill-rule="evenodd" clip-rule="evenodd" fill="#CCCCCC" d="M129.314,19.202c-4.842,0-9.226,1.947-12.418,5.099
			c-3.1-5.094-8.706-8.497-15.106-8.497c-0.056,0-0.11,0.004-0.166,0.004c-3.216-3.349-7.736-5.438-12.747-5.438
			c-7.566,0-14.019,4.755-16.538,11.438c-0.922-0.148-1.867-0.229-2.831-0.229c-9.759,0-17.67,7.907-17.67,17.663
			c0,0.864,0,9.607,0,10.531c0,9.755,7.911,17.664,17.67,17.664c5.519,0,10.444-2.532,13.683-6.496h-1.569V33.33h7.049v22.893
			c0.069,0.001,0.137,0.005,0.206,0.005c0.056,0,0.11-0.004,0.165-0.004c2.508,2.612,5.811,4.456,9.521,5.142
			c0-8.02,0-20.881,0-20.881h-2.927v-5.343h2.927v-3.505c0-3.995,2.495-8.034,8.244-8.034h4.01v5.933h-2.768
			c-1.677,0-2.438,0.915-2.438,2.532v3.075h5.289v5.343h-5.289c0,0,0,12.792,0,20.707c-1.234,0.275-2.512,0.429-3.824,0.429h-1.139
			c0.197,0.013,0.395,0.027,0.593,0.033c3.003,5.471,8.817,9.181,15.501,9.181c5.185,0,9.848-2.232,13.08-5.787
			c9.523-0.27,17.163-8.065,17.163-17.65c0-0.924,0-9.666,0-10.531C146.984,27.109,139.073,19.202,129.314,19.202z M77.149,60.941
			h-8.021c-5.799,0-8.243-4.048-8.243-8.041c0,0,0-14.688,0-27.062h7.055v26.63c0,1.674,0.699,2.539,2.491,2.539h6.718V60.941z
			 M85.15,29.826c-2.443,0-4.448-1.994-4.448-4.421c0-2.429,2.005-4.369,4.448-4.369c2.437,0,4.388,1.94,4.388,4.369
			C89.538,27.833,87.587,29.826,85.15,29.826z M139.063,49.073h-17.667c0,3.61,2.217,6.26,6.181,6.26
			c3.087,0,4.605-0.864,6.394-2.649l4.284,4.156c-2.871,2.861-5.638,4.421-10.731,4.421c-6.672,0-13.068-3.02-13.068-14.403
			c0-9.168,4.989-14.343,12.313-14.343c7.854,0,12.296,5.716,12.296,13.43V49.073z"/>
	</g>
</g>
</svg>
