<?xml version="1.0" encoding="utf-8"?>
<!-- Generator: Adobe Illustrator 15.0.0, SVG Export Plug-In . SVG Version: 6.00 Build 0)  -->
<!DOCTYPE svg PUBLIC "-//W3C//DTD SVG 1.1//EN" "http://www.w3.org/Graphics/SVG/1.1/DTD/svg11.dtd">
<svg version="1.1" id="圖層_3" xmlns="http://www.w3.org/2000/svg" xmlns:xlink="http://www.w3.org/1999/xlink" x="0px" y="0px"
	 width="200px" height="50px" viewBox="0 0 200 50" enable-background="new 0 0 200 50" xml:space="preserve">
<g>
	<g>
		<g>
			<defs>
				<polygon id="SVGID_1_" points="163.945,32.204 155.071,32.204 155.071,33.229 173.522,33.229 173.522,32.204 173.522,32.204 
					165.008,32.204 163.945,32.204 				"/>
			</defs>
			<use xlink:href="#SVGID_1_"  overflow="visible" fill-rule="evenodd" clip-rule="evenodd" fill="#FEFEFE"/>
			<clipPath id="SVGID_2_">
				<use xlink:href="#SVGID_1_"  overflow="visible"/>
			</clipPath>
		</g>
		<g>
			<defs>
				<path id="SVGID_3_" d="M165.008,30.88v-3.112h7.098v-1.025h-7.098v-3.413h8.16v-1.024h-8.16V18.55h-1.063v3.755h-5.363
					c0.448-1.061,0.815-1.765,1.103-2.799l-1.062-0.272c-0.822,3.025-2.125,5.168-3.903,7.116l0.618,0.735
					c0.972-0.993,1.858-2.247,2.667-3.755h5.94v3.413h-4.261v1.025h4.261v3.112H165.008L165.008,30.88z"/>
			</defs>
			<use xlink:href="#SVGID_3_"  overflow="visible" fill-rule="evenodd" clip-rule="evenodd" fill="#FEFEFE"/>
			<clipPath id="SVGID_4_">
				<use xlink:href="#SVGID_3_"  overflow="visible"/>
			</clipPath>
		</g>
		<g>
			<defs>
				<path id="SVGID_5_" d="M180.82,19.575l-0.733,0.597c1.287,0.795,2.49,1.391,3.604,2.476l0.655-0.599
					C183.313,20.999,182.14,20.402,180.82,19.575L180.82,19.575L180.82,19.575z M180.412,23.329l-0.68,0.598
					c1.287,0.848,2.474,1.558,3.56,2.815l0.698-0.597C182.887,24.935,181.695,24.226,180.412,23.329L180.412,23.329L180.412,23.329z
					 M183.368,27.768c-1.02,2.703-2.233,3.583-3.636,5.375l0.621,0.766c1.53-1.918,2.862-2.835,3.992-5.491L183.368,27.768
					L183.368,27.768L183.368,27.768z"/>
			</defs>
			<use xlink:href="#SVGID_5_"  overflow="visible" fill-rule="evenodd" clip-rule="evenodd" fill="#FEFEFE"/>
			<clipPath id="SVGID_6_">
				<use xlink:href="#SVGID_5_"  overflow="visible"/>
			</clipPath>
		</g>
		<g>
			<defs>
				<polygon id="SVGID_7_" points="135.026,21.24 135.026,22.988 145.314,22.988 145.314,19.917 135.026,19.917 135.026,19.917 
					133.961,19.917 133.961,18.892 146.379,18.892 146.379,18.892 146.379,24.012 133.961,24.012 133.961,21.24 135.026,21.24 				
					"/>
			</defs>
			<use xlink:href="#SVGID_7_"  overflow="visible" fill-rule="evenodd" clip-rule="evenodd" fill="#FEFEFE"/>
			<clipPath id="SVGID_8_">
				<use xlink:href="#SVGID_7_"  overflow="visible"/>
			</clipPath>
		</g>
		<g>
			<defs>
				<polygon id="SVGID_9_" points="132.896,28.406 132.896,31.521 132.896,31.521 137.492,31.521 137.492,27.084 132.896,27.084 
					131.831,27.084 131.831,26.059 138.572,26.059 138.572,26.059 138.572,33.567 137.509,33.567 137.509,32.545 132.896,32.545 
					132.896,33.567 131.831,33.567 131.831,28.406 132.896,28.406 				"/>
			</defs>
			<use xlink:href="#SVGID_9_"  overflow="visible" fill-rule="evenodd" clip-rule="evenodd" fill="#FEFEFE"/>
			<clipPath id="SVGID_10_">
				<use xlink:href="#SVGID_9_"  overflow="visible"/>
			</clipPath>
		</g>
		<g>
			<defs>
				<polygon id="SVGID_11_" points="142.476,28.406 142.476,31.521 142.476,31.521 147.09,31.521 147.09,27.084 142.476,27.084 
					141.412,27.084 141.412,26.059 148.153,26.059 148.153,26.059 148.153,33.567 147.09,33.567 147.09,32.545 142.476,32.545 
					142.476,33.567 141.412,33.567 141.412,28.406 142.476,28.406 				"/>
			</defs>
			<use xlink:href="#SVGID_11_"  overflow="visible" fill-rule="evenodd" clip-rule="evenodd" fill="#FEFEFE"/>
			<clipPath id="SVGID_12_">
				<use xlink:href="#SVGID_11_"  overflow="visible"/>
			</clipPath>
		</g>
		<g>
			<defs>
				<path id="SVGID_13_" d="M189.365,28.108h-2.181v3.754l0,0h8.515v-3.754h-4.966v-1.024v-2.048h-6.388v-1.023h6.388v-2.288
					c-1.863,0.182-3.606,0.261-5.218,0.239l-0.461-1.021c4.519,0.021,8.345-0.544,11.473-1.708l0.592,0.684
					c-1.414,0.694-3.187,1.244-5.323,1.636v2.46h6.388l0,0v1.023h-6.388v2.048h4.969v6.824h-1.065v-1.021h-8.515v1.021h-1.065
					v-6.824h3.246V28.108L189.365,28.108z"/>
			</defs>
			<use xlink:href="#SVGID_13_"  overflow="visible" fill-rule="evenodd" clip-rule="evenodd" fill="#FEFEFE"/>
			<clipPath id="SVGID_14_">
				<use xlink:href="#SVGID_13_"  overflow="visible"/>
			</clipPath>
		</g>
		<g>
			<defs>
				<path id="SVGID_15_" d="M39.024,25.884h4.305c3.104,0,5.524-2.441,5.524-5.508c0-3.067-2.421-5.473-5.524-5.473h-5.457v18.97
					h1.152V25.884L39.024,25.884L39.024,25.884z M39.024,16.055h4.305c2.398,0,4.374,1.917,4.374,4.321s-1.976,4.357-4.374,4.357
					h-4.305V16.055L39.024,16.055L39.024,16.055z"/>
			</defs>
			<use xlink:href="#SVGID_15_"  overflow="visible" fill-rule="evenodd" clip-rule="evenodd" fill="#FEFEFE"/>
			<clipPath id="SVGID_16_">
				<use xlink:href="#SVGID_15_"  overflow="visible"/>
			</clipPath>
		</g>
		<g>
			<defs>
				<path id="SVGID_17_" d="M53.767,21.047h-1.15v12.826h1.15V21.047L53.767,21.047L53.767,21.047z M53.767,16.132h-1.15v2.117h1.15
					V16.132L53.767,16.132L53.767,16.132z"/>
			</defs>
			<use xlink:href="#SVGID_17_"  overflow="visible" fill-rule="evenodd" clip-rule="evenodd" fill="#FEFEFE"/>
			<clipPath id="SVGID_18_">
				<use xlink:href="#SVGID_17_"  overflow="visible"/>
			</clipPath>
		</g>
		<g>
			<defs>
				<path id="SVGID_19_" d="M61.142,21.047h-1.153v12.826h1.153V21.047L61.142,21.047L61.142,21.047z M61.142,16.132h-1.153v2.117
					h1.153V16.132L61.142,16.132L61.142,16.132z"/>
			</defs>
			<use xlink:href="#SVGID_19_"  overflow="visible" fill-rule="evenodd" clip-rule="evenodd" fill="#FEFEFE"/>
			<clipPath id="SVGID_20_">
				<use xlink:href="#SVGID_19_"  overflow="visible"/>
			</clipPath>
		</g>
		<g>
			<defs>
				<path id="SVGID_21_" d="M75.886,24.884c0-1.136-0.461-2.133-1.358-2.882c-0.792-0.594-1.822-0.955-2.818-0.955h-0.172
					c-0.996,0-2.027,0.361-2.817,0.955c-0.139,0.099-0.207,0.197-0.305,0.3c-0.231-0.343-0.724-0.783-1.26-1.255l-0.791,0.912
					c0.482,0.404,0.999,0.843,0.999,1.114v10.801h1.151v-8.944c0.068-1.834,1.787-2.729,3.024-2.729h0.172
					c1.272,0,3.024,0.93,3.024,2.685v8.989h1.152V24.884L75.886,24.884L75.886,24.884z"/>
			</defs>
			<use xlink:href="#SVGID_21_"  overflow="visible" fill-rule="evenodd" clip-rule="evenodd" fill="#FEFEFE"/>
			<clipPath id="SVGID_22_">
				<use xlink:href="#SVGID_21_"  overflow="visible"/>
			</clipPath>
		</g>
		<g>
			<defs>
				<polygon id="SVGID_23_" points="91.078,32.721 82.029,32.721 82.029,14.903 80.877,14.903 80.877,33.873 91.078,33.873 
					91.078,32.721 91.078,32.721 				"/>
			</defs>
			<use xlink:href="#SVGID_23_"  overflow="visible" fill-rule="evenodd" clip-rule="evenodd" fill="#FEFEFE"/>
			<clipPath id="SVGID_24_">
				<use xlink:href="#SVGID_23_"  overflow="visible"/>
			</clipPath>
		</g>
		<g>
			<defs>
				<path id="SVGID_25_" d="M95.546,21.047h-1.153v12.826h1.153V21.047L95.546,21.047L95.546,21.047z M95.546,16.132h-1.153v2.117
					h1.153V16.132L95.546,16.132L95.546,16.132z"/>
			</defs>
			<use xlink:href="#SVGID_25_"  overflow="visible" fill-rule="evenodd" clip-rule="evenodd" fill="#FEFEFE"/>
			<clipPath id="SVGID_26_">
				<use xlink:href="#SVGID_25_"  overflow="visible"/>
			</clipPath>
		</g>
		<g>
			<defs>
				<path id="SVGID_27_" d="M105.396,22.277h-2.477v-2.424c0-1.88,0.998-3.581,2.202-3.689l2.717-0.208l-0.103-1.053l-2.718,0.211
					c-0.93,0.069-1.755,0.668-2.363,1.614c-0.559,0.879-0.889,2.038-0.889,3.197v13.948h1.153V23.426h2.477V22.277L105.396,22.277
					L105.396,22.277z"/>
			</defs>
			<use xlink:href="#SVGID_27_"  overflow="visible" fill-rule="evenodd" clip-rule="evenodd" fill="#FEFEFE"/>
			<clipPath id="SVGID_28_">
				<use xlink:href="#SVGID_27_"  overflow="visible"/>
			</clipPath>
		</g>
		<g>
			<defs>
				<path id="SVGID_29_" d="M116.017,33.873c0.998,0,1.96-0.33,2.785-0.947c0.826-0.622,1.378-1.41,1.549-2.295l-1.204-0.229
					c-0.24,1.247-1.687,2.296-3.13,2.296h-0.621c-1.443,0-2.891-1.049-3.13-2.296c-0.104-0.493-0.172-1.115-0.207-1.802l8.531-0.656
					V27.42c-0.034-1.054-0.101-2.067-0.239-2.858c-0.171-0.975-0.723-1.913-1.549-2.56c-0.825-0.626-1.787-0.955-2.785-0.955h-0.621
					c-0.962,0-1.96,0.329-2.785,0.955c-0.793,0.647-1.343,1.585-1.548,2.56c-0.312,1.839-0.312,4.498,0,6.069
					c0.205,0.885,0.755,1.673,1.548,2.295c0.825,0.617,1.823,0.947,2.785,0.947H116.017L116.017,33.873L116.017,33.873z
					 M116.017,22.199c1.443,0,2.89,1.199,3.13,2.627c0.104,0.562,0.172,1.274,0.205,2.025l-7.325,0.601
					c0.032-0.938,0.101-1.876,0.239-2.626c0.239-1.428,1.687-2.627,3.13-2.627H116.017L116.017,22.199L116.017,22.199z"/>
			</defs>
			<use xlink:href="#SVGID_29_"  overflow="visible" fill-rule="evenodd" clip-rule="evenodd" fill="#FEFEFE"/>
			<clipPath id="SVGID_30_">
				<use xlink:href="#SVGID_29_"  overflow="visible"/>
			</clipPath>
		</g>
		<g>
			<defs>
				<polygon id="SVGID_31_" points="125.073,31.453 126.916,31.453 126.916,33.296 125.073,33.296 125.073,31.453 				"/>
			</defs>
			<use xlink:href="#SVGID_31_"  overflow="visible" fill-rule="evenodd" clip-rule="evenodd" fill="#FEFEFE"/>
			<clipPath id="SVGID_32_">
				<use xlink:href="#SVGID_31_"  overflow="visible"/>
			</clipPath>
		</g>
	</g>
	<g>
		<linearGradient id="SVGID_33_" gradientUnits="userSpaceOnUse" x1="15.1499" y1="23.4399" x2="15.1499" y2="11.6812">
			<stop  offset="0" style="stop-color:#FF9A00"/>
			<stop  offset="1" style="stop-color:#FFCE00"/>
		</linearGradient>
		<path fill-rule="evenodd" clip-rule="evenodd" fill="url(#SVGID_33_)" d="M9.452,11.681c0,0,0.302,4.215,0.922,7.441
			c3.866,0.844,6.983,2.817,9.21,4.318c0.485-0.305,0.576-0.349,1.265-0.777c-0.558-1.146-1.053-1.844-1.959-3.232
			C16.319,15.483,9.452,11.681,9.452,11.681L9.452,11.681z"/>
		<linearGradient id="SVGID_34_" gradientUnits="userSpaceOnUse" x1="10.186" y1="33.8887" x2="22.2427" y2="33.8887">
			<stop  offset="0" style="stop-color:#FF9A00"/>
			<stop  offset="1" style="stop-color:#FF9A00"/>
		</linearGradient>
		<path fill-rule="evenodd" clip-rule="evenodd" fill="url(#SVGID_34_)" d="M10.186,35.733c0,0,8.207-0.351,12.057-2.466
			c-2.062-0.475-3.272-0.509-4.879-0.64c-2.584-0.122-2.919-0.122-4.862-0.583C10.745,34.439,10.186,35.733,10.186,35.733
			L10.186,35.733z"/>
		<linearGradient id="SVGID_35_" gradientUnits="userSpaceOnUse" x1="12.9282" y1="32.5127" x2="12.9282" y2="19.6758">
			<stop  offset="0" style="stop-color:#FF9A00"/>
			<stop  offset="1" style="stop-color:#FFCE00"/>
		</linearGradient>
		<path fill-rule="evenodd" clip-rule="evenodd" fill="url(#SVGID_35_)" d="M1,19.689c0,0,5.435,7.92,10.178,10.045
			c4.885,2.187,6.539,0.429,13.679,2.778c-4.193-7.64-7.531-9.032-11.796-11.1C8.917,19.404,1,19.689,1,19.689L1,19.689z"/>
		<linearGradient id="SVGID_36_" gradientUnits="userSpaceOnUse" x1="27.1851" y1="30.7998" x2="27.1851" y2="21.6499">
			<stop  offset="0" style="stop-color:#FF9A00"/>
			<stop  offset="1" style="stop-color:#FFCE00"/>
		</linearGradient>
		<path fill-rule="evenodd" clip-rule="evenodd" fill="url(#SVGID_36_)" d="M25.779,30.8c1.985-1.933,4.124-6.465,7.618-9.147
			c-4.563-0.031-8.436,0.113-12.425,2.746C20.972,24.398,24.395,28.126,25.779,30.8z"/>
	</g>
</g>
</svg>
