<?xml version="1.0" encoding="utf-8"?>
<!-- Generator: Adobe Illustrator 15.0.0, SVG Export Plug-In . SVG Version: 6.00 Build 0)  -->
<!DOCTYPE svg PUBLIC "-//W3C//DTD SVG 1.1//EN" "http://www.w3.org/Graphics/SVG/1.1/DTD/svg11.dtd">
<svg version="1.1" id="圖層_3" xmlns="http://www.w3.org/2000/svg" xmlns:xlink="http://www.w3.org/1999/xlink" x="0px" y="0px"
	 width="50px" height="50px" viewBox="0 0 50 50" enable-background="new 0 0 50 50" xml:space="preserve">
<path fill="#FFFFFF" d="M28.509,25.854c1.775-1.14,2.956-3.127,2.956-5.388c0-3.527-2.869-6.396-6.396-6.396
	c-3.526,0-6.396,2.869-6.396,6.396c0,2.263,1.183,4.253,2.96,5.391c-2.883,1.454-5.682,4.299-5.682,6.788
	c0,2.966,6.328,3.286,9.049,3.286c2.721,0,9.049-0.32,9.049-3.286C34.05,30.108,31.348,27.292,28.509,25.854z M25.068,16.246
	c2.326,0,4.219,1.894,4.219,4.22c0,2.325-1.893,4.218-4.219,4.218s-4.217-1.893-4.217-4.218
	C20.851,18.14,22.743,16.246,25.068,16.246z M25.001,33.753c-4.164,0-6.47-0.756-6.87-1.194c0.112-2.242,4.578-5.494,6.938-5.494
	c2.313,0,6.691,3.252,6.802,5.494C31.471,32.997,29.165,33.753,25.001,33.753z"/>
</svg>
