<?xml version="1.0" encoding="utf-8"?>
<!-- Generator: Adobe Illustrator 24.0.0, SVG Export Plug-In . SVG Version: 6.00 Build 0)  -->
<svg version="1.1" id="圖層_1" xmlns="http://www.w3.org/2000/svg" xmlns:xlink="http://www.w3.org/1999/xlink" x="0px" y="0px"
	 viewBox="0 0 40 40" style="enable-background:new 0 0 40 40;" xml:space="preserve">
<style type="text/css">
	.st0{fill-rule:evenodd;clip-rule:evenodd;fill:#FEEBC4;}
	.st1{fill:none;stroke:#DE0716;stroke-width:1.1781;stroke-linecap:round;stroke-linejoin:round;}
</style>
<circle id="O" class="st0" cx="20" cy="20" r="20"/>
<path id="Stroke-1" class="st1" d="M14.2,14.6c-1.2,3.1-8,4.7-8,10.8c0,4.8,4.9,7.5,10.6,7.5H17c5.7,0,10.6-2.7,10.6-7.5
	c0-6-6.8-7.6-8-10.7"/>
<path id="Stroke-3" class="st1" d="M14.5,12.8c-0.3-1.8-2.6-4.2-3.5-5.1c-0.1-0.1,0-0.4,0.2-0.3c0.8,0.1,2.3,0.3,4.3,1.6
	c0.4,0.3,0.2-1.5,0.1-2.5c0-0.3,0.3-0.5,0.6-0.4c1.7,0.6,2.2,2.3,2.5,2c1.3-1.2,2.3-1.7,2.9-2c0.4-0.1,0.7,0.2,0.6,0.5
	c-0.8,1.4-2.4,4.5-2.7,6.1"/>
<path id="Stroke-5" class="st1" d="M17.1,15.1c-1.7,0-3-0.6-3.1-0.6c-0.5-0.2-0.7-0.7-0.4-1.2c0.2-0.4,0.8-0.6,1.3-0.4
	c0,0,2.2,0.9,4.3,0c0.5-0.2,1.1,0,1.3,0.4c0.2,0.4,0,0.9-0.4,1.2C19,14.9,18,15.1,17.1,15.1z"/>
<path id="Stroke-7" class="st1" d="M23.2,29c1-0.8,1.7-1.9,2-3.2"/>
<path id="Stroke-9" class="st1" d="M24.7,16.6c0.8-0.4,1.4-0.8,1.9-1.3"/>
<path id="Stroke-11" class="st1" d="M30.7,16.2c0.1,2.6,5.1,5.1,3.6,9.8c-0.8,2.5-3.1,3.9-5.9,4.1"/>
<path id="Stroke-13" class="st1" d="M30.5,16.2c0.6-1.3,3-2.7,3.9-3.3c0.1-0.1,0.1-0.3-0.1-0.3c-0.6-0.1-1.8-0.2-3.7,0.5
	c-0.4,0.1,0.2-1.2,0.5-1.9c0.1-0.2-0.1-0.4-0.3-0.4c-1.4,0.1-2.2,1.4-2.4,1.1c-0.7-1.1-1.3-1.7-1.8-2.1c-0.2-0.2-0.6,0-0.5,0.3
	c0.3,1.2,0.8,3.9,0.6,5.2"/>
<path id="Stroke-15" class="st1" d="M26.3,15.1c0.7,0.5,1.4,0.8,2.1,1c1.3,0.3,2.5,0.1,2.5,0.1"/>
<path id="Stroke-17" class="st1" d="M17.2,19.8l1.1,2.2c0.1,0.2,0.2,0.3,0.4,0.3l2.4,0.4c0.4,0.1,0.6,0.6,0.3,0.9l-1.8,1.7
	c-0.1,0.1-0.2,0.3-0.2,0.5l0.4,2.4c0.1,0.4-0.4,0.8-0.8,0.6L17,27.6c-0.2-0.1-0.3-0.1-0.5,0l-2.2,1.1c-0.4,0.2-0.9-0.1-0.8-0.6
	l0.4-2.4c0-0.2,0-0.4-0.2-0.5L12,23.6c-0.3-0.3-0.1-0.9,0.3-0.9l2.4-0.4c0.2,0,0.3-0.1,0.4-0.3l1.1-2.2C16.4,19.4,17,19.4,17.2,19.8
	z"/>
</svg>
